…
# extract phenotypes significantly enriched with ASD genes
significant_with_asd <- extract_significant_phenotypes(asd_all_output_tidy)
#> [1] "Correlation between beta_pval and sign_pval: 0.698660507602923"

# extract phenotypes significantly enriched with DD genes
significant_with_dd <- extract_significant_phenotypes(dd_all_output_tidy)
#> [1] "Correlation between beta_pval and sign_pval: 0.752985623493337"

# extract phenotypes significantly enriched with NDD genes
significant_with_ndd <- extract_significant_phenotypes(ndd_all_output_tidy)
#> [1] "Correlation between beta_pval and sign_pval: 0.737126031432676"

significant_with_asd
#> # A tibble: 36 × 34
#>    annotation n_cases n_controls heritability saige_version inv_normalized
#>    <chr>        <dbl>      <dbl>        <dbl> <chr>         <lgl>         
#>  1 pLoF          9234     385549       0.0595 SAIGE_0.44.5  FALSE         
#>  2 pLoF          3255     391528       0.0213 SAIGE_0.44.5  FALSE         
#>  3 pLoF          3105     391678       0.0300 SAIGE_0.44.5  FALSE         
#>  4 pLoF          3851     390932       0.140  SAIGE_0.44.5  FALSE         
#>  5 pLoF          3036     391747       0.0338 SAIGE_0.44.5  FALSE         
#>  6 pLoF          3590     391193       0.0197 SAIGE_0.44.5  FALSE         
#>  7 pLoF          9257     385526       0.0303 SAIGE_0.44.5  FALSE         
#>  8 pLoF          4912     389871       0.0392 SAIGE_0.44.5  FALSE         
#>  9 pLoF          4801     389982       0.0193 SAIGE_0.44.5  FALSE         
#> 10 pLoF          3381     391402       0.0176 SAIGE_0.44.5  FALSE         
#> # ℹ 26 more rows
#> # ℹ 28 more variables: trait_type <chr>, phenocode <chr>, pheno_sex <chr>,
#> #   coding <chr>, modifier <chr>, n_cases_defined <dbl>,
#> #   n_cases_both_sexes <dbl>, n_cases_females <dbl>, n_cases_males <dbl>,
#> #   description <chr>, description_more <chr>, coding_description <chr>,
#> #   category <chr>, beta_pval <dbl>, beta_padj <dbl>, beta_log2err <dbl>,
#> #   beta_ES <dbl>, beta_NES <dbl>, beta_size <int>, beta_leadingEdge <list>, …
significant_with_dd
#> # A tibble: 116 × 34
#>    annotation n_cases n_controls heritability saige_version inv_normalized
#>    <chr>        <dbl>      <dbl>        <dbl> <chr>         <lgl>         
#>  1 pLoF          9234     385549       0.0595 SAIGE_0.44.5  FALSE         
#>  2 pLoF          5232     389551       0.0234 SAIGE_0.44.5  FALSE         
#>  3 pLoF          3045     391738       0.0757 SAIGE_0.44.5  FALSE         
#>  4 pLoF         15514     379269       0.0646 SAIGE_0.44.5  FALSE         
#>  5 pLoF          3019     391764       0.134  SAIGE_0.44.5  FALSE         
#>  6 pLoF          3255     391528       0.0213 SAIGE_0.44.5  FALSE         
#>  7 pLoF          4063     390720       0.0746 SAIGE_0.44.5  FALSE         
#>  8 pLoF          5494     389289       0.0199 SAIGE_0.44.5  FALSE         
#>  9 pLoF         22602     372181       0.0131 SAIGE_0.44.5  FALSE         
#> 10 pLoF          5473     389310       0.0147 SAIGE_0.44.5  FALSE         
#> # ℹ 106 more rows
#> # ℹ 28 more variables: trait_type <chr>, phenocode <chr>, pheno_sex <chr>,
#> #   coding <chr>, modifier <chr>, n_cases_defined <dbl>,
#> #   n_cases_both_sexes <dbl>, n_cases_females <dbl>, n_cases_males <dbl>,
#> #   description <chr>, description_more <chr>, coding_description <chr>,
#> #   category <chr>, beta_pval <dbl>, beta_padj <dbl>, beta_log2err <dbl>,
#> #   beta_ES <dbl>, beta_NES <dbl>, beta_size <int>, beta_leadingEdge <list>, …
significant_with_ndd
#> # A tibble: 164 × 34
#>    annotation n_cases n_controls heritability saige_version inv_normalized
#>    <chr>        <dbl>      <dbl>        <dbl> <chr>         <lgl>         
#>  1 pLoF          9234     385549       0.0595 SAIGE_0.44.5  FALSE         
#>  2 pLoF          5232     389551       0.0234 SAIGE_0.44.5  FALSE         
#>  3 pLoF          3265     391518       0.0331 SAIGE_0.44.5  FALSE         
#>  4 pLoF          7887     386896       0.0206 SAIGE_0.44.5  FALSE         
#>  5 pLoF          5472     389311       0.0218 SAIGE_0.44.5  FALSE         
#>  6 pLoF          3122     391661       0.0124 SAIGE_0.44.5  FALSE         
#>  7 pLoF          3255     391528       0.0213 SAIGE_0.44.5  FALSE         
#>  8 pLoF          4063     390720       0.0746 SAIGE_0.44.5  FALSE         
#>  9 pLoF          5494     389289       0.0199 SAIGE_0.44.5  FALSE         
#> 10 pLoF         22602     372181       0.0131 SAIGE_0.44.5  FALSE         
#> # ℹ 154 more rows
#> # ℹ 28 more variables: trait_type <chr>, phenocode <chr>, pheno_sex <chr>,
#> #   coding <chr>, modifier <chr>, n_cases_defined <dbl>,
#> #   n_cases_both_sexes <dbl>, n_cases_females <dbl>, n_cases_males <dbl>,
#> #   description <chr>, description_more <chr>, coding_description <chr>,
#> #   category <chr>, beta_pval <dbl>, beta_padj <dbl>, beta_log2err <dbl>,
#> #   beta_ES <dbl>, beta_NES <dbl>, beta_size <int>, beta_leadingEdge <list>, …
…
